Module 8 Final Assignment
…
### Since most of the variables in our dataset are not being incldued in analysis, a new table with only three variables will be created. The first two variables of this table are YEAR and MONTH, which was taken this from the OCCUR_DATE column in the original dataset. The third variable is a count of shootings which occured during each month of a year. The first two variables (YEAR and MONTH) will be used as the independent variable during analysis, while the Count variable will be the dependent variable, and the variable which will be forecasted.

table <- count(nypd, OCCUR_DATE) # Create a table of the total shootings per day in the dataset

table$OCCUR_DATE <- mdy(table$OCCUR_DATE) # Convert the OCCUR_DATE column into a the correct data type (date) using the mdy() function.

table <- table %>% mutate(year=year(OCCUR_DATE)) # Use mutate() to separate month from the entire date.

table <- table %>% mutate(month=month(OCCUR_DATE)) # Use mutate() to separate year from the entire date.

table <- table %>% group_by(year, month) %>% summarise(count = sum(n)) # Use group_by() and summarise() to get the final table.

table

## # A tibble: 165 x 3
## # Groups:   year [14]
##     year month count
##    <dbl> <dbl> <int>
##  1  2006     1   129
##  2  2006     2    97
##  3  2006     3   102
##  4  2006     4   156
##  5  2006     5   173
##  6  2006     6   180
##  7  2006     7   233
##  8  2006     8   245
##  9  2006     9   196
## 10  2006    10   199
## # ... with 155 more rows
…
